# Blender v2.70 (sub 0) OBJ File: ''
# www.blender.org
v -1.301194 2.943192 -2.263777
v -1.301194 3.022840 -2.358697
v 1.304308 3.022840 -2.358697
v 1.304308 2.943192 -2.263777
v -1.301194 4.445285 -1.003373
v 1.304308 4.445285 -1.003373
v 1.304308 4.524932 -1.098292
v -1.301194 4.524932 -1.098292
s 1
f 1 2 3
f 4 1 3
f 5 6 7
f 7 8 5
f 1 4 6
f 5 1 6
f 4 3 7
f 7 6 4
f 3 2 8
f 8 7 3
f 2 1 5
f 5 8 2
